Quick EDA
…
active_hspc_hhc

# A tibble: 90 × 15
   name              type  fullcredentialcode credentialnumber credential status
   <chr>             <chr> <chr>              <chr>            <chr>      <chr> 
 1 Atrinity Home He… Limi… HHC.9915708        9915708          Home Heal… Active
 2 Franciscan Home … Corp… HHC.0C87714        C87714           Home Heal… Active
 3 Bristol Home Car… Busi… HHC.8311410        C8311410         Home Heal… Active
 4 Stratford Visiti… Non-… HHC.0C81841        C81841           Home Heal… Active
 5 Visiting Nurse S… Corp… HHC.9815510        C9815510         Home Heal… Active
 6 Vna Health At Ho… Limi… HHC.9915747        9915747          Home Heal… Active
 7 Home Health Prof… Limi… HHC.9915753        9915753          Home Heal… Active
 8 Staff Mates Home… Corp… HHC.9308102        C9308102         Home Heal… Active
 9 American Home He… Corp… HHC.0000033        33               Home Heal… Active
10 The Connecticut … Non-… HHC.846210H        C846210H         Home Heal… Active
# ℹ 80 more rows
# ℹ 9 more variables: issuedate <dttm>, effectivedate <dttm>,
#   expirationdate <dttm>, address <chr>, city <chr>, state <chr>, zip <chr>,
#   zip_plus_four <chr>, recordrefreshedon <dttm>
